MovieGuide-master/runMonkey/bugreport-NYC-2019-03-24-21-50-46_out/raw/am_logs.vcd
$timescale 1ms $end
$scope am_logs $end
$var wire 1 a15 113153850 $end
$var wire 1 a68 3882 $end
$var wire 1 a88 151882761 $end
$var wire 1 a116 3039191 $end
$var wire 1 a124 157670239 $end
$var wire 1 a61 3084 $end
$var wire 1 a26 10019 $end
$var wire 1 a100 124376271 $end
$var wire 1 a44 2544 $end
$var wire 1 a108 146198123 $end
$var wire 1 a120 127532874 $end
$var wire 1 a40 3113 $end
$var wire 1 a27 10010 $end
$var wire 1 a103 73584945 $end
$var wire 1 a13 10013 $end
$var wire 1 a83 62748144 $end
$var wire 1 a12 10015 $end
$var wire 1 a43 10014 $end
$var wire 1 a127 44015826 $end
$var wire 1 a53 10017 $end
$var wire 1 a96 10 $end
$var wire 1 a114 61223586 $end
$var wire 1 a136 11 $end
$var wire 1 a138 12 $end
$var wire 1 a122 31607189 $end
$var wire 1 a20 10020 $end
$var wire 1 a72 60546334 $end
$var wire 1 a128 24392144 $end
$var wire 1 a123 233359740 $end
$var wire 1 a110 244735531 $end
$var wire 1 a139 67942612 $end
$var wire 1 a51 0 $end
$var wire 1 a5 1 $end
$var wire 1 a14 10029 $end
$var wire 1 a8 2 $end
$var wire 1 a7 183160269 $end
$var wire 1 a16 3 $end
$var wire 1 a19 4 $end
$var wire 1 a49 2313 $end
$var wire 1 a24 5 $end
$var wire 1 a71 6 $end
$var wire 1 a82 7 $end
$var wire 1 a118 11048375 $end
$var wire 1 a25 10022 $end
$var wire 1 a86 8 $end
$var wire 1 a31 10021 $end
$var wire 1 a90 9 $end
$var wire 1 a17 10024 $end
$var wire 1 a87 80095708 $end
$var wire 1 a65 3800 $end
$var wire 1 a3 10028 $end
$var wire 1 a74 4073 $end
$var wire 1 a85 4590 $end
$var wire 1 a58 10071 $end
$var wire 1 a99 30064773 $end
$var wire 1 a46 10072 $end
$var wire 1 a6 1000 $end
$var wire 1 a50 3023 $end
$var wire 1 a59 2052 $end
$var wire 1 a135 2844 $end
$var wire 1 a48 2167 $end
$var wire 1 a112 195262860 $end
$var wire 1 a32 10076 $end
$var wire 1 a132 4865 $end
$var wire 1 a76 43176676 $end
$var wire 1 a39 2208 $end
$var wire 1 a91 227013206 $end
$var wire 1 a131 225766342 $end
$var wire 1 a73 10084 $end
$var wire 1 a77 4520 $end
$var wire 1 a125 157440591 $end
$var wire 1 a109 169454982 $end
$var wire 1 a57 10008 $end
$var wire 1 a81 3549 $end
$var wire 1 a84 3427 $end
$var wire 1 a129 228928491 $end
$var wire 1 a4 1001 $end
$var wire 1 a63 3784 $end
$var wire 1 a35 10002 $end
$var wire 1 a28 10001 $end
$var wire 1 a9 10004 $end
$var wire 1 a11 10003 $end
$var wire 1 a66 3823 $end
$var wire 1 a37 10005 $end
$var wire 1 a1 10053 $end
$var wire 1 a54 10052 $end
$var wire 1 a79 4135 $end
$var wire 1 a18 253197417 $end
$var wire 1 a101 81862326 $end
$var wire 1 a134 2623 $end
$var wire 1 a23 2465 $end
$var wire 1 a69 3157 $end
$var wire 1 a45 10057 $end
$var wire 1 a106 244566913 $end
$var wire 1 a98 21383072 $end
$var wire 1 a130 27542118 $end
$var wire 1 a29 10058 $end
$var wire 1 a70 2902 $end
$var wire 1 a75 248648692 $end
$var wire 1 a140 192740589 $end
$var wire 1 a102 211721209 $end
$var wire 1 a78 3172 $end
$var wire 1 a92 3050 $end
$var wire 1 a97 176598211 $end
$var wire 1 a34 10066 $end
$var wire 1 a36 10065 $end
$var wire 1 a62 3686 $end
$var wire 1 a30 10068 $end
$var wire 1 a10 10067 $end
$var wire 1 a21 10069 $end
$var wire 1 a93 4392 $end
$var wire 1 a115 227606628 $end
$var wire 1 a137 28895745 $end
$var wire 1 a56 2130 $end
$var wire 1 a107 256143000 $end
$var wire 1 a113 55287962 $end
$var wire 1 a111 48516142 $end
$var wire 1 a38 2009 $end
$var wire 1 a47 2405 $end
$var wire 1 a2 1037 $end
$var wire 1 a126 206367155 $end
$var wire 1 a121 173592314 $end
$var wire 1 a80 3731 $end
$var wire 1 a104 161048737 $end
$var wire 1 a41 10034 $end
$var wire 1 a94 4425 $end
$var wire 1 a52 10037 $end
$var wire 1 a60 3618 $end
$var wire 1 a89 4669 $end
$var wire 1 a105 45773880 $end
$var wire 1 a133 4442 $end
$var wire 1 a64 10041 $end
$var wire 1 a117 28229126 $end
$var wire 1 a95 4716 $end
$var wire 1 a119 107348156 $end
$var wire 1 a55 2773 $end
$var wire 1 a42 10046 $end
$var wire 1 a22 46981028 $end
$var wire 1 a67 3865 $end
$var wire 1 a33 10047 $end
$upscope $end
$enddefinitions $end
#10187271560
bX a15
bZ a68
bX a88
bX a116
bX a124
bZ a61
b0 a26
bX a100
bZ a44
bX a108
bX a120
b0 a40
b0 a27
bX a103
b0 a13
bX a83
b0 a12
b0 a43
bX a127
b0 a53
bZ a96
bX a114
bZ a136
bZ a138
bX a122
b0 a20
bX a72
bX a128
bX a123
bX a110
bX a139
b- a51
bZ a5
b0 a14
bZ a8
bX a7
bZ a16
bZ a19
bZ a49
bZ a24
bZ a71
bZ a82
bX a118
b0 a25
bZ a86
b0 a31
bZ a90
b0 a17
bX a87
bZ a65
b0 a3
bZ a74
bZ a85
b0 a58
bX a99
b0 a46
b0 a6
b0 a50
bZ a59
bZ a135
b0 a48
bX a112
b0 a32
bZ a132
bX a76
bZ a39
bX a91
bX a131
b0 a73
b0 a77
bX a125
bX a109
b0 a57
bZ a81
bZ a84
bX a129
b0 a4
bZ a63
b0 a35
b0 a28
b0 a9
b0 a11
bZ a66
b0 a37
b0 a1
b0 a54
bZ a79
bX a18
bX a101
bZ a134
b0 a23
bZ a69
b0 a45
bX a106
bX a98
bX a130
b0 a29
bZ a70
bX a75
bX a140
bX a102
bZ a78
bZ a92
bX a97
b0 a34
b0 a36
bZ a62
b0 a30
b0 a10
b0 a21
bZ a93
bX a115
bX a137
bZ a56
bX a107
bX a113
bX a111
bZ a38
bZ a47
b0 a2
bX a126
bX a121
bZ a80
bX a104
b0 a41
bZ a94
b0 a52
bZ a60
b0 a89
bX a105
bZ a133
b0 a64
bX a117
b0 a95
bX a119
bZ a55
b0 a42
bX a22
bZ a67
b0 a33
#10187292385
bZ a1
#10187292407
bZ a2
#10187292418
bZ a3
#10187292863
bZ a4
#10187292866
b- a5
#10187292879
bZ a6
#10187292928
bX a5
#10187293004
b- a7
#10187293010
b- a8
#10187293030
bZ a6
#10187293055
bX a8
#10187293277
bZ a5
#10187293398
bZ a9
#10187294119
bZ a10
#10187294524
bZ a11
#10187294667
bZ a12
#10187294774
bZ a13
#10187294833
bZ a14
#10187294848
b- a15
#10187294850
b- a16
#10187294863
bZ a17
#10187294914
bX a16
#10187295043
bZ a13
#10187295482
bZ a6
#10187295535
bZ a14
#10187295588
b- a18
#10187295625
b- a19
#10187295638
bZ a20
#10187295716
bX a19
#10187295771
bZ a21
#10187295963
b- a22
#10187295981
b- a24
#10187295988
bZ a25
#10187296228
bX a24
#10187296427
bZ a25
#10187296592
bZ a13
#10187297049
bZ a8
#10187297103
bZ a16
#10187297184
bZ a26
#10187298006
bZ a27
#10187298021
bZ a28
#10187299161
bZ a29
#10187299651
bZ a13
#10187300024
bZ a13
#10187301297
bZ a30
#10187301500
bZ a13
#10187301644
bZ a31
#10187301821
bZ a32
#10187302151
bZ a33
#10187302185
bZ a34
#10187303504
bZ a35
#10187305374
bZ a36
#10187305823
bZ a37
#10187305842
b0 a38
#10187306396
b0 a39
#10187307479
bZ a41
#10187308341
bZ a42
#10187310202
bZ a43
#10187310525
b0 a44
#10187310877
bZ a45
#10187311740
bZ a36
#10187311860
bZ a46
#10187311942
b0 a47
#10187312002
bZ a10
#10187312003
b0 a49
#10187312293
bZ a51
#10187312400
bZ a52
#10187312483
bZ a53
#10187312934
bZ a54
#10187313307
bZ a30
#10187319554
bZ a57
#10187319669
b0 a56
#10187319687
b0 a55
#10187320883
bZ a58
#10187321613
bZ a32
#10187322655
b0 a59
#10187322828
bZ a29
#10187324357
b0 a60
#10187324647
b0 a61
#10187324769
bZ a54
#10187324954
b0 a62
#10187325023
bZ a43
#10187325148
b0 a63
#10187325231
bZ a42
#10187325280
bZ a64
#10187325346
b0 a65
#10187325362
b0 a67
#10187325366
b0 a66
#10187326044
b0 a68
#10187326239
b0 a69
#10187332393
b0 a70
#10187332957
b- a71
#10187332961
b- a72
#10187333021
bZ a73
#10187333029
bX a71
#10187334585
b0 a74
#10187335793
b- a71
#10187335794
b- a75
#10187335806
bX a71
#10187337251
b- a76
#10187337770
bX a71
#10187340297
bZ a73
#10187340398
bX a71
#10187341517
b0 a78
#10187342510
b0 a79
#10187344563
bZ a36
#10187345283
b- a75
#10187345378
bX a24
#10187348075
b- a72
#10187348080
bX a71
#10187348567
b0 a80
#10187352567
b0 a81
#10187356016
b- a82
#10187356017
b- a75
#10187356071
bX a82
#10187357346
b- a83
#10187357348
bX a24
#10187357352
bZ a71
#10187357412
b0 a84
#10187357413
b0 a85
#10187361996
b- a86
#10187361997
b- a72
#10187362010
bZ a73
#10187362040
bX a86
#10187364827
b- a86
#10187364828
b- a87
#10187364830
bX a86
#10187369054
b- a88
#10187369570
bX a86
#10187370980
bZ a86
#10187370987
bZ a86
#10187371087
bX a24
#10187372546
b- a90
#10187372547
b- a72
#10187372562
bZ a73
#10187372579
bX a90
#10187375613
b- a91
#10187375664
bX a24
#10187378394
bZ a46
#10187384196
b0 a92
#10187384296
b0 a93
#10187386246
b0 a94
#10187391296
bZ a13
#10187392392
bZ a90
#10187392778
b- a96
#10187392780
b- a72
#10187392795
bZ a73
#10187392813
bX a96
#10187393407
b- a96
#10187393408
b- a97
#10187393414
bX a96
#10187394293
b- a98
#10187394310
bX a96
#10187394594
b- a96
#10187394597
b- a97
#10187394616
bX a96
#10187395159
bZ a96
#10187395395
b- a99
#10187395410
bX a96
#10187395880
b- a96
#10187395881
b- a97
#10187395885
bX a96
#10187396232
b- a100
#10187396244
bX a96
#10187396344
b- a96
#10187396348
b- a97
#10187396359
bX a96
#10187396759
b- a101
#10187396777
bX a96
#10187396926
b- a96
#10187396930
b- a97
#10187396942
bX a96
#10187397046
b- a102
#10187397128
bX a96
#10187397277
b- a96
#10187397278
b- a97
#10187397281
bX a96
#10187397282
bZ a96
#10187397282
bZ a96
#10187397282
bZ a96
#10187397282
bZ a96
#10187397827
b- a103
#10187397841
bX a96
#10187397947
b- a96
#10187397948
b- a97
#10187397953
bX a96
#10187398160
b- a104
#10187398162
bX a96
#10187398262
b- a96
#10187398263
b- a97
#10187398266
bX a96
#10187398478
b- a105
#10187398493
bX a96
#10187398726
b- a96
#10187398728
b- a97
#10187398730
bX a96
#10187398956
b- a106
#10187398963
bX a96
#10187399033
b- a96
#10187399034
b- a97
#10187399041
bX a96
#10187399201
b- a107
#10187399231
bX a96
#10187399342
b- a96
#10187399344
b- a97
#10187399348
bX a96
#10187399352
b- a96
#10187399353
b- a108
#10187399460
bX a96
#10187399864
bZ a52
#10187400077
bZ a96
#10187400079
b- a109
#10187400130
bX a96
#10187400247
b- a96
#10187400248
b- a97
#10187400255
bX a96
#10187400648
b- a110
#10187400661
bX a96
#10187400729
b- a96
#10187400732
b- a97
#10187400747
bX a96
#10187400964
b- a111
#10187400966
bX a96
#10187401048
b- a96
#10187401049
b- a97
#10187401055
bX a96
#10187401631
bZ a96
#10187401631
bZ a96
#10187401631
bZ a96
#10187401631
bZ a96
#10187401631
bZ a96
#10187401631
bZ a96
#10187401631
bZ a96
#10187401631
bZ a96
#10187402051
b- a112
#10187402061
bX a96
#10187402149
b- a96
#10187402151
b- a97
#10187402179
bX a96
#10187402326
b- a113
#10187402348
bX a96
#10187403014
bZ a96
#10187403021
bZ a96
#10187403467
b- a96
#10187403472
b- a97
#10187403527
bX a96
#10187404436
b- a114
#10187404446
bX a96
#10187404833
bZ a96
#10187409827
b- a96
#10187409830
b- a97
#10187409834
bX a96
#10187410231
b- a115
#10187410250
bX a96
#10187410780
bZ a96
#10187411209
b- a96
#10187411212
b- a97
#10187411214
bX a96
#10187411433
b- a116
#10187411440
bX a96
#10187411516
b- a96
#10187411517
b- a97
#10187411528
bX a96
#10187411702
b- a117
#10187411711
bX a96
#10187411929
b- a96
#10187411931
b- a97
#10187411946
bX a96
#10187412131
b- a118
#10187412274
bX a96
#10187412410
bZ a96
#10187412410
bZ a96
#10187412410
bZ a96
#10187412843
b- a96
#10187412845
b- a97
#10187412848
bX a96
#10187413083
b- a119
#10187413092
bX a96
#10187413174
b- a96
#10187413176
b- a97
#10187413181
bX a96
#10187413366
b- a120
#10187413382
bX a96
#10187413489
b- a96
#10187413491
b- a97
#10187413494
bX a96
#10187413814
b- a121
#10187413827
bX a96
#10187413993
b- a96
#10187413996
b- a97
#10187414000
bX a96
#10187414229
b- a122
#10187414242
bX a96
#10187414329
b- a96
#10187414331
b- a97
#10187414333
bX a96
#10187414580
b- a123
#10187414592
bX a96
#10187414741
b- a96
#10187414744
b- a97
#10187414747
bX a96
#10187415012
b- a124
#10187415026
bX a96
#10187415160
b- a96
#10187415163
b- a97
#10187415173
bX a96
#10187415385
b- a125
#10187415398
bX a96
#10187415692
bZ a96
#10187415692
bZ a96
#10187415692
bZ a96
#10187415693
bZ a96
#10187415693
bZ a96
#10187415693
bZ a96
#10187415693
bZ a96
#10187418641
b- a96
#10187418643
b- a97
#10187418646
bX a96
#10187418996
b- a126
#10187419011
bX a96
#10187419160
b- a96
#10187419163
b- a97
#10187419166
bX a96
#10187419708
bZ a96
#10187419815
b- a127
#10187419826
bX a96
#10187420061
b- a96
#10187420062
b- a97
#10187420065
bX a96
#10187420399
b- a128
#10187420414
bX a96
#10187420576
b- a96
#10187420578
b- a97
#10187420583
bZ a96
#10187420595
bX a96
#10187420713
bZ a96
#10187420713
bZ a96
#10187420943
b- a96
#10187420945
b- a97
#10187420947
bX a96
#10187421213
b- a129
#10187421222
bX a96
#10187421542
bZ a96
#10187421927
b- a96
#10187421929
b- a97
#10187421931
bX a96
#10187422098
b- a130
#10187422109
bX a96
#10187422411
bZ a96
#10187422676
b- a96
#10187422678
b- a97
#10187422680
bX a96
#10187423328
b- a131
#10187423392
b0 a132
#10187423408
bZ a73
#10187423430
bX a96
#10187425499
bZ a9
#10187425808
b0 a133
#10187425880
bZ a6
#10187426085
bZ a34
#10187426088
b0 a134
#10187427204
b0 a135
#10187431048
b- a97
#10187431099
bX a24
#10187431507
bZ a96
#10187435989
bZ a26
#10187437934
b- a136
#10187437936
b- a72
#10187437965
bX a136
#10187441467
bZ a3
#10187444180
b- a137
#10187444235
bX a24
#10187444612
bZ a136
#10187444778
b- a138
#10187444783
b- a72
#10187444793
bX a138
#10187444957
b- a138
#10187444959
b- a139
#10187444982
bX a138
#10187445213
b- a140
#10187445223
bX a138
#10187445558
bZ a138
#10187445846
b- a138
#10187445848
b- a139
#10187445877
bX a138
