MovieGuide-master/runMonkey/bugreport-NYC-2019-03-24-21-50-46_out/raw/sample_graph_dvm_lock_sample.vcd
$timescale 1ms $end
$scope am_logs $end
$var wire 8 n8 com_google_android_apps_photos $end
$var wire 8 n4 com_google_android_gms_persisten $end
$var wire 8 n1 com_android_systemui $end
$var wire 8 n6 com_google_android_gm $end
$var wire 8 n2 com_google_android_googlequickse $end
$var wire 8 n3 android_process_acore $end
$var wire 8 n0 system_server $end
$var wire 8 n5 com_google_android_gms $end
$var wire 8 n7 com_google_android_youtube $end
$upscope $end
$enddefinitions $end
#10187271560
bZ n0
bZ n1
bZ n2
bZ n3
bZ n4
bZ n5
bZ n6
bZ n7
bZ n8
#10187278182
b00000001 n0
#10187281232
b00000010 n0
#10187286139
b00000001 n2
#10187287909
b00000011 n0
#10187289575
b00000100 n0
#10187289637
b00000101 n0
#10187290637
b00000110 n0
#10187291591
b00000111 n0
#10187291880
b00000110 n0
#10187291882
b00000111 n0
#10187292501
b00001000 n0
#10187294202
b00001001 n0
#10187294228
b00001010 n0
#10187294229
b00001011 n0
#10187294348
b00001100 n0
#10187294448
b00001011 n0
#10187294485
b00000001 n4
#10187294493
b00000010 n4
#10187294508
b00000011 n4
#10187294732
b00001010 n0
#10187295483
b00001001 n0
#10187295489
b00001000 n0
#10187295523
b00001001 n0
#10187295526
b00001010 n0
#10187295662
b00001011 n0
#10187295791
b00001010 n0
#10187295894
b00001001 n0
#10187295920
b00001000 n0
#10187295921
b00000111 n0
#10187296105
b00001000 n0
#10187296211
b00001001 n0
#10187296244
b00001000 n0
#10187296306
b00000111 n0
#10187296422
b00000110 n0
#10187296752
b00000101 n0
#10187296759
b00000100 n0
#10187296762
b00000011 n0
#10187296967
b00000010 n0
#10187297097
b00000001 n0
#10187297231
b00000001 n1
#10187297772
bZ n1
#10187297839
b00000001 n5
#10187298155
b00000010 n0
#10187298383
bZ n2
#10187298385
b00000001 n2
#10187298393
b00000001 n0
#10187298492
b00000100 n4
#10187298734
b00000010 n0
#10187299206
b11111111 n3
#10187299208
bZ n3
#10187299209
bZ n2
#10187299243
b11111111 n3
#10187299245
bZ n3
#10187299343
b00000011 n0
#10187299400
b00000100 n0
#10187299516
b00000001 n2
#10187299552
bZ n2
#10187299554
b00000001 n2
#10187299590
bZ n2
#10187299847
b00000011 n0
#10187300048
b00000011 n4
#10187300056
b00000010 n4
#10187300071
b00000001 n4
#10187300363
b11111111 n2
#10187300365
bZ n2
#10187300383
b00000010 n0
#10187300426
b00000001 n0
#10187300475
b11111111 n2
#10187300476
b11111110 n2
#10187300477
b11111111 n2
b11111110 n2
#10187300478
b11111111 n2
b11111110 n2
#10187300479
b11111111 n2
b11111110 n2
#10187300480
b11111111 n2
b11111110 n2
#10187300481
b11111111 n2
#10187300482
bZ n2
#10187300491
b11111111 n2
#10187300492
b11111110 n2
#10187300493
b11111111 n2
#10187300494
bZ n2
b11111111 n2
#10187300495
b11111110 n2
#10187300496
b11111111 n2
b11111110 n2
b11111101 n2
#10187300497
b11111110 n2
#10187300498
b11111111 n2
bZ n2
b11111111 n2
#10187300500
bZ n2
#10187300692
b00000010 n0
#10187300693
b00000011 n0
b00000100 n0
#10187300695
b00000101 n0
b00000110 n0
b00000111 n0
b00001000 n0
b00001001 n0
#10187300696
b00001010 n0
b00001011 n0
b00001100 n0
#10187300697
b00001101 n0
#10187300704
b00001110 n0
b00001111 n0
#10187300706
bZ n5
#10187300708
b00000001 n5
#10187300831
b00000010 n5
#10187300836
b11111111 n2
#10187300838
bZ n2
#10187300839
b00000001 n5
#10187301930
b00010000 n0
#10187301935
b00010001 n0
#10187302254
b00010010 n0
#10187302939
b11111111 n6
#10187302941
bZ n6
#10187303038
b11111111 n7
#10187303040
bZ n7
#10187303402
bZ n5
#10187303460
bZ n4
#10187303462
b00000001 n4
#10187303589
b00010011 n0
#10187303646
b11111111 n5
#10187303648
bZ n5
#10187304089
bZ n4
#10187304187
b00010010 n0
#10187304738
b00010001 n0
#10187306125
b00010010 n0
#10187306760
b00000001 n4
#10187306873
bZ n4
#10187306885
b00010001 n0
#10187307203
b00000001 n4
#10187307493
b00000001 n5
#10187307495
b00000010 n5
#10187307657
b00000010 n4
#10187307752
b00000011 n4
#10187307753
b00000100 n4
b00000101 n4
b00000110 n4
b00000111 n4
#10187307836
b00001000 n4
#10187307858
b00001001 n4
#10187307903
b00001010 n4
#10187309417
b00001011 n4
#10187309684
b00001100 n4
#10187309735
b00001011 n4
#10187310002
b00001010 n4
#10187310674
b00001011 n4
#10187310787
b00001010 n4
#10187311609
b00000001 n8
#10187311750
b00010010 n0
#10187312060
bZ n8
#10187312510
b00010001 n0
#10187312725
b00010010 n0
#10187312800
b00001001 n4
#10187313090
b00000001 n5
#10187313092
bZ n5
#10187313130
b00001010 n4
#10187313149
b00001001 n4
#10187313254
b00001000 n4
#10187313274
b00000001 n5
#10187313349
b00000111 n4
#10187313350
b00000110 n4
b00000101 n4
b00000100 n4
b00000011 n4
#10187313433
b00000010 n4
#10187313455
b00000001 n4
#10187313466
bZ n4
#10187313489
bZ n5
#10187313624
b00000001 n5
#10187313718
b00010011 n0
#10187313844
b00000001 n4
#10187313878
b00000010 n4
b00000011 n4
#10187316769
b00010100 n0
#10187316770
b00010101 n0
b00010110 n0
#10187317655
b00010111 n0
#10187317763
b00011000 n0
#10187317767
b00011001 n0
#10187317768
b00011010 n0
b00011011 n0
b00011100 n0
b00011101 n0
#10187317769
b00011110 n0
b00011111 n0
#10187317770
b00100000 n0
b00100001 n0
b00100010 n0
#10187317773
b00100011 n0
#10187318518
b00100100 n0
#10187318542
b00100101 n0
#10187319187
bZ n5
#10187319232
b00100100 n0
#10187319236
b00100011 n0
#10187319237
b00100010 n0
b00100001 n0
b00100000 n0
b00011111 n0
#10187319238
b00011110 n0
b00011101 n0
b00011100 n0
#10187319239
b00011011 n0
b00011010 n0
b00011001 n0
#10187319242
b00011000 n0
#10187319243
b00010111 n0
b00010110 n0
#10187319244
b00010101 n0
b00010100 n0
#10187319246
b00010011 n0
b00010010 n0
b00010001 n0
b00010000 n0
b00001111 n0
#10187319247
b00001110 n0
b00001101 n0
b00001100 n0
#10187319248
b00001011 n0
#10187319255
b00001010 n0
b00001001 n0
#10187319267
b00001000 n0
#10187319268
b00000111 n0
b00000110 n0
#10187319278
b00000101 n0
#10187319302
b00000100 n0
#10187319441
b00000010 n4
b00000001 n4
bZ n4
#10187319555
b00000011 n0
#10187319823
b00000010 n0
#10187319828
b00000001 n0
#10187320123
b00000010 n0
#10187320402
b00000001 n0
#10187320883
bZ n0
#10187324362
b11111111 n0
#10187324364
bZ n0
#10187324966
b00000001 n4
#10187325079
bZ n4
#10187325160
b00000001 n4
#10187325273
bZ n4
#10187326071
b00000001 n4
#10187326184
bZ n4
#10187326269
b00000001 n4
#10187326271
bZ n4
#10187337948
b00000001 n0
#10187340026
b00000010 n0
#10187340340
b00000001 n0
#10187340398
bZ n0
#10187344624
b00000001 n0
#10187345381
bZ n0
#10187365599
b00000001 n0
#10187371053
bZ n0
#10187392324
b11111111 n5
#10187392326
bZ n5
#10187393606
b00000001 n0
#10187400075
bZ n0
#10187401049
b00000001 n0
#10187401193
bZ n0
#10187403804
b00000001 n0
#10187407337
b00000010 n0
#10187410194
b00000001 n0
#10187412172
bZ n0
#10187429040
b00000001 n0
#10187429581
bZ n0
#10187430671
b00000001 n0
#10187431428
bZ n0
#10187431888
b00000001 n0
#10187431976
b00000010 n0
#10187432032
b00000001 n0
#10187432120
bZ n0
#10187432253
b00000001 n0
b00000010 n0
#10187432754
b00000011 n0
#10187434652
b00000010 n0
b00000001 n0
#10187435353
b00000001 n4
#10187435466
bZ n4
#10187435611
bZ n0
#10187438432
b00000001 n0
#10187441289
bZ n0
#10187451769
bZ n0
bZ n1
bZ n2
bZ n3
bZ n4
bZ n5
bZ n6
bZ n7
bZ n8
